<define-tag pagetitle>DLA-2970-1 qemu</define-tag>
<define-tag report_date>2022-04-04</define-tag>
<define-tag secrefs>CVE-2021-3593 CVE-2021-3748 CVE-2021-3930 CVE-2021-20196 CVE-2022-26354</define-tag>
<define-tag packages>qemu</define-tag>
<define-tag isvulnerable>yes</define-tag>
<define-tag fixed>yes</define-tag>
<define-tag fixed-section>no</define-tag>

#use wml::debian::security

