<define-tag pagetitle>DLA-2964-1 libdatetime-timezone-perl</define-tag>
<define-tag report_date>2022-03-29</define-tag>
<define-tag packages>libdatetime-timezone-perl</define-tag>
<define-tag isvulnerable>yes</define-tag>
<define-tag fixed>yes</define-tag>
<define-tag fixed-section>no</define-tag>

#use wml::debian::security

