<define-tag pagetitle>DLA-3009-1 cifs-utils</define-tag>
<define-tag report_date>2022-05-16</define-tag>
<define-tag secrefs>CVE-2022-27239 CVE-2022-29869 Bug#1010818</define-tag>
<define-tag packages>cifs-utils</define-tag>
<define-tag isvulnerable>yes</define-tag>
<define-tag fixed>yes</define-tag>
<define-tag fixed-section>no</define-tag>

#use wml::debian::security

