<define-tag pagetitle>DLA-3166-1 ruby-sinatra</define-tag>
<define-tag report_date>2022-10-28</define-tag>
<define-tag secrefs>CVE-2022-29970 Bug#1014717</define-tag>
<define-tag packages>ruby-sinatra</define-tag>
<define-tag isvulnerable>yes</define-tag>
<define-tag fixed>yes</define-tag>
<define-tag fixed-section>no</define-tag>

#use wml::debian::security

