<define-tag pagetitle>DLA-3082-1 exim4</define-tag>
<define-tag report_date>2022-08-27</define-tag>
<define-tag secrefs>CVE-2022-37452</define-tag>
<define-tag packages>exim4</define-tag>
<define-tag isvulnerable>yes</define-tag>
<define-tag fixed>yes</define-tag>
<define-tag fixed-section>no</define-tag>

#use wml::debian::security

