<define-tag pagetitle>DLA-3141-1 wordpress</define-tag>
<define-tag report_date>2022-10-10</define-tag>
<define-tag secrefs>CVE-2019-17670 Bug#942459</define-tag>
<define-tag packages>wordpress</define-tag>
<define-tag isvulnerable>yes</define-tag>
<define-tag fixed>yes</define-tag>
<define-tag fixed-section>no</define-tag>

#use wml::debian::security

