<define-tag pagetitle>DLA-3044-1 glib2.0</define-tag>
<define-tag report_date>2022-6-06</define-tag>
<define-tag secrefs>CVE-2021-27218 CVE-2021-27219 CVE-2021-28153 Bug#984969 Bug#982778 Bug#982779</define-tag>
<define-tag packages>glib2.0</define-tag>
<define-tag isvulnerable>yes</define-tag>
<define-tag fixed>yes</define-tag>
<define-tag fixed-section>no</define-tag>

#use wml::debian::security

