<define-tag pagetitle>DLA-2844-1 privoxy</define-tag>
<define-tag report_date>2021-12-13</define-tag>
<define-tag secrefs>CVE-2021-44540 CVE-2021-44543</define-tag>
<define-tag packages>privoxy</define-tag>
<define-tag isvulnerable>yes</define-tag>
<define-tag fixed>yes</define-tag>
<define-tag fixed-section>no</define-tag>

#use wml::debian::security

