<define-tag pagetitle>DLA-2601-1 cloud-init</define-tag>
<define-tag report_date>2021-03-20</define-tag>
<define-tag secrefs>CVE-2021-3429 Bug#985540</define-tag>
<define-tag packages>cloud-init</define-tag>
<define-tag isvulnerable>yes</define-tag>
<define-tag fixed>yes</define-tag>
<define-tag fixed-section>no</define-tag>

#use wml::debian::security

