<define-tag pagetitle>DSA-5451-1 thunderbird</define-tag>
<define-tag report_date>2023-7-09</define-tag>
<define-tag secrefs>CVE-2023-37201 CVE-2023-37202 CVE-2023-37207 CVE-2023-37208 CVE-2023-37211 Bug#971790 Bug#1006432</define-tag>
<define-tag packages>thunderbird</define-tag>
<define-tag isvulnerable>yes</define-tag>
<define-tag fixed>yes</define-tag>
<define-tag fixed-section>no</define-tag>

#use wml::debian::security



</dl>
