<define-tag pagetitle>DSA-5398-1 chromium</define-tag>
<define-tag report_date>2023-5-04</define-tag>
<define-tag secrefs>CVE-2023-2459 CVE-2023-2460 CVE-2023-2461 CVE-2023-2462 CVE-2023-2463 CVE-2023-2464 CVE-2023-2465 CVE-2023-2466 CVE-2023-2467 CVE-2023-2468 Bug#992178 Bug#1031352</define-tag>
<define-tag packages>chromium</define-tag>
<define-tag isvulnerable>yes</define-tag>
<define-tag fixed>yes</define-tag>
<define-tag fixed-section>no</define-tag>

#use wml::debian::security



</dl>
