<define-tag pagetitle>DSA-5482-1 tryton-server</define-tag>
<define-tag report_date>2023-8-24</define-tag>
<define-tag secrefs>not yet available</define-tag>
<define-tag packages>tryton-server</define-tag>
<define-tag isvulnerable>yes</define-tag>
<define-tag fixed>yes</define-tag>
<define-tag fixed-section>no</define-tag>

#use wml::debian::security



</dl>
