<define-tag pagetitle>DSA-5413-1 sniproxy</define-tag>
<define-tag report_date>2023-5-26</define-tag>
<define-tag secrefs>CVE-2023-25076 Bug#1033752</define-tag>
<define-tag packages>sniproxy</define-tag>
<define-tag isvulnerable>yes</define-tag>
<define-tag fixed>yes</define-tag>
<define-tag fixed-section>no</define-tag>

#use wml::debian::security



</dl>
