<define-tag pagetitle>DSA-5335-1 openjdk-17</define-tag>
<define-tag report_date>2023-2-01</define-tag>
<define-tag secrefs>CVE-2022-21618 CVE-2022-21619 CVE-2022-21624 CVE-2022-21628 CVE-2022-39399 CVE-2023-21835 CVE-2023-21843</define-tag>
<define-tag packages>openjdk-17</define-tag>
<define-tag isvulnerable>yes</define-tag>
<define-tag fixed>yes</define-tag>
<define-tag fixed-section>no</define-tag>

#use wml::debian::security



</dl>
