<define-tag pagetitle>DLA-0006-1 scheme48</define-tag>
<define-tag report_date>2014-6-16</define-tag>
<define-tag secrefs>CVE-2014-4150 Bug#748766</define-tag>
<define-tag packages>scheme48</define-tag>
<define-tag isvulnerable>yes</define-tag>
<define-tag fixed>yes</define-tag>
<define-tag fixed-section>no</define-tag>

#use wml::debian::security

