<define-tag pagetitle>DLA-1015-1 libgcrypt11</define-tag>
<define-tag report_date>2017-7-6</define-tag>
<define-tag secrefs>CVE-2017-7526</define-tag>
<define-tag packages>libgcrypt11</define-tag>
<define-tag isvulnerable>yes</define-tag>
<define-tag fixed>yes</define-tag>
<define-tag fixed-section>no</define-tag>

#use wml::debian::security

