<define-tag pagetitle>DLA-966-1 pngquant</define-tag>
<define-tag report_date>2017-5-30</define-tag>
<define-tag secrefs>CVE-2016-5735 Bug#863469</define-tag>
<define-tag packages>pngquant</define-tag>
<define-tag isvulnerable>yes</define-tag>
<define-tag fixed>yes</define-tag>
<define-tag fixed-section>no</define-tag>

#use wml::debian::security

