<define-tag pagetitle>DLA-3478-1 yajl</define-tag>
<define-tag report_date>2023-07-02</define-tag>
<define-tag secrefs>CVE-2023-33460 Bug#1039984</define-tag>
<define-tag packages>yajl</define-tag>
<define-tag isvulnerable>yes</define-tag>
<define-tag fixed>yes</define-tag>
<define-tag fixed-section>no</define-tag>

#use wml::debian::security

