<define-tag pagetitle>DLA-3359-1 libapache2-mod-auth-mellon</define-tag>
<define-tag report_date>2023-03-13</define-tag>
<define-tag secrefs>CVE-2019-13038 CVE-2021-3639 Bug#931265 Bug#991730</define-tag>
<define-tag packages>libapache2-mod-auth-mellon</define-tag>
<define-tag isvulnerable>yes</define-tag>
<define-tag fixed>yes</define-tag>
<define-tag fixed-section>no</define-tag>

#use wml::debian::security

