<define-tag pagetitle>DLA-3297-1 tiff</define-tag>
<define-tag report_date>2023-01-31</define-tag>
<define-tag secrefs>CVE-2022-48281 Bug#1029653</define-tag>
<define-tag packages>tiff</define-tag>
<define-tag isvulnerable>yes</define-tag>
<define-tag fixed>yes</define-tag>
<define-tag fixed-section>no</define-tag>

#use wml::debian::security

