<define-tag pagetitle>DLA-3479-1 golang-yaml.v2</define-tag>
<define-tag report_date>2023-07-05</define-tag>
<define-tag secrefs>CVE-2021-4235 CVE-2022-3064</define-tag>
<define-tag packages>golang-yaml.v2</define-tag>
<define-tag isvulnerable>yes</define-tag>
<define-tag fixed>yes</define-tag>
<define-tag fixed-section>no</define-tag>

#use wml::debian::security

