<define-tag pagetitle>DLA-3342-1 freeradius</define-tag>
<define-tag report_date>2023-2-24</define-tag>
<define-tag secrefs>CVE-2022-41859 CVE-2022-41860 CVE-2022-41861</define-tag>
<define-tag packages>freeradius</define-tag>
<define-tag isvulnerable>yes</define-tag>
<define-tag fixed>yes</define-tag>
<define-tag fixed-section>no</define-tag>

#use wml::debian::security

