<define-tag pagetitle>DLA-3264-1 ruby-sinatra</define-tag>
<define-tag report_date>2023-01-10</define-tag>
<define-tag secrefs>CVE-2022-45442</define-tag>
<define-tag packages>ruby-sinatra</define-tag>
<define-tag isvulnerable>yes</define-tag>
<define-tag fixed>yes</define-tag>
<define-tag fixed-section>no</define-tag>

#use wml::debian::security
