<define-tag pagetitle>DLA-3482-1 debian-archive-keyring</define-tag>
<define-tag report_date>2023-07-07</define-tag>
<define-tag packages>debian-archive-keyring</define-tag>
<define-tag isvulnerable>yes</define-tag>
<define-tag fixed>yes</define-tag>
<define-tag fixed-section>no</define-tag>

#use wml::debian::security

