<define-tag pagetitle>DLA-3519-1 ghostscript</define-tag>
<define-tag report_date>2023-08-07</define-tag>
<define-tag secrefs>CVE-2023-38559 bug#1043033</define-tag>
<define-tag packages>ghostscript</define-tag>
<define-tag isvulnerable>yes</define-tag>
<define-tag fixed>yes</define-tag>
<define-tag fixed-section>no</define-tag>

#use wml::debian::security

