<define-tag pagetitle>DLA-2467-2 lxml</define-tag>
<define-tag report_date>2020-12-18</define-tag>
<define-tag secrefs>CVE-2020-27783</define-tag>
<define-tag packages>lxml</define-tag>
<define-tag isvulnerable>yes</define-tag>
<define-tag fixed>yes</define-tag>
<define-tag fixed-section>no</define-tag>

#use wml::debian::security

