<define-tag pagetitle>DLA-2088-1 libsolv</define-tag>
<define-tag report_date>2020-01-31</define-tag>
<define-tag secrefs>CVE-2019-20387 Bug#949611</define-tag>
<define-tag packages>libsolv</define-tag>
<define-tag isvulnerable>yes</define-tag>
<define-tag fixed>yes</define-tag>
<define-tag fixed-section>no</define-tag>

#use wml::debian::security

