<define-tag pagetitle>DLA-2370-1 python-pip</define-tag>
<define-tag report_date>2020-09-11</define-tag>
<define-tag secrefs>CVE-2019-20916</define-tag>
<define-tag packages>python-pip</define-tag>
<define-tag isvulnerable>yes</define-tag>
<define-tag fixed>yes</define-tag>
<define-tag fixed-section>no</define-tag>

#use wml::debian::security
