<define-tag pagetitle>DLA-2353-1 bacula</define-tag>
<define-tag report_date>2020-8-29</define-tag>
<define-tag secrefs>CVE-2020-11061</define-tag>
<define-tag packages>bacula</define-tag>
<define-tag isvulnerable>yes</define-tag>
<define-tag fixed>yes</define-tag>
<define-tag fixed-section>no</define-tag>

#use wml::debian::security

