<define-tag pagetitle>DLA-2108-1 clamav</define-tag>
<define-tag report_date>2020-02-18</define-tag>
<define-tag secrefs>CVE-2019-15961 Bug#945265</define-tag>
<define-tag packages>clamav</define-tag>
<define-tag isvulnerable>yes</define-tag>
<define-tag fixed>yes</define-tag>
<define-tag fixed-section>no</define-tag>

#use wml::debian::security

