<define-tag pagetitle>DLA-1269-1 dokuwiki</define-tag>
<define-tag report_date>2018-2-4</define-tag>
<define-tag secrefs>CVE-2017-18123 Bug##889281</define-tag>
<define-tag packages>dokuwiki</define-tag>
<define-tag isvulnerable>yes</define-tag>
<define-tag fixed>yes</define-tag>
<define-tag fixed-section>no</define-tag>

#use wml::debian::security

