<define-tag pagetitle>DSA-4528-1 bird</define-tag>
<define-tag report_date>2019-9-19</define-tag>
<define-tag secrefs>CVE-2019-16159</define-tag>
<define-tag packages>bird</define-tag>
<define-tag isvulnerable>yes</define-tag>
<define-tag fixed>yes</define-tag>
<define-tag fixed-section>no</define-tag>

#use wml::debian::security



</dl>
