<define-tag pagetitle>DSA-5186-1 djangorestframework</define-tag>
<define-tag report_date>2022-7-22</define-tag>
<define-tag secrefs>CVE-2020-25626</define-tag>
<define-tag packages>djangorestframework</define-tag>
<define-tag isvulnerable>yes</define-tag>
<define-tag fixed>yes</define-tag>
<define-tag fixed-section>no</define-tag>

#use wml::debian::security



</dl>
