<define-tag pagetitle>DSA-5282-1 firefox-esr</define-tag>
<define-tag report_date>2022-11-16</define-tag>
<define-tag secrefs>CVE-2022-45403 CVE-2022-45404 CVE-2022-45405 CVE-2022-45406 CVE-2022-45408 CVE-2022-45409 CVE-2022-45410 CVE-2022-45411 CVE-2022-45412 CVE-2022-45416 CVE-2022-45418 CVE-2022-45420 CVE-2022-45421</define-tag>
<define-tag packages>firefox-esr</define-tag>
<define-tag isvulnerable>yes</define-tag>
<define-tag fixed>yes</define-tag>
<define-tag fixed-section>no</define-tag>

#use wml::debian::security



</dl>
