<define-tag pagetitle>DSA-5264-1 batik</define-tag>
<define-tag report_date>2022-10-29</define-tag>
<define-tag secrefs>CVE-2022-41704 CVE-2022-42890</define-tag>
<define-tag packages>batik</define-tag>
<define-tag isvulnerable>yes</define-tag>
<define-tag fixed>yes</define-tag>
<define-tag fixed-section>no</define-tag>

#use wml::debian::security



</dl>
