<define-tag pagetitle>DLA-1899-1 faad2</define-tag>
<define-tag report_date>2019-08-28</define-tag>
<define-tag secrefs>CVE-2018-19502 CVE-2018-20196 CVE-2018-20199 CVE-2018-20360 CVE-2019-6956 CVE-2019-15296 Bug#914641</define-tag>
<define-tag packages>faad2</define-tag>
<define-tag isvulnerable>yes</define-tag>
<define-tag fixed>yes</define-tag>
<define-tag fixed-section>no</define-tag>

#use wml::debian::security

