<define-tag pagetitle>DLA-572-1 icedove</define-tag>
<define-tag report_date>2016-7-30</define-tag>
<define-tag secrefs>CVE-2016-2818</define-tag>
<define-tag packages>icedove</define-tag>
<define-tag isvulnerable>yes</define-tag>
<define-tag fixed>yes</define-tag>
<define-tag fixed-section>no</define-tag>

#use wml::debian::security

